^\\LIVT-PFS\ROAMING PROFILES\K.PAVLOV\DOCUMENTS\VISUAL STUDIO 2012\PROJECTS\LAB1_PARPROGR\LAB1_PARPROGR\STDAFX.CPP
C:\PF\MICROSOFT VISUAL STUDIO 11.0\VC\BIN\1049\CLUI.DLL
C:\WINDOWS\GLOBALIZATION\SORTING\SORTDEFAULT.NLS
C:\WINDOWS\SYSTEM32\RSAENH.DLL
C:\PF\MICROSOFT VISUAL STUDIO 11.0\COMMON7\IDE\MSPDBSRV.EXE
C:\WINDOWS\SYSTEM32\TZRES.DLL
\\LIVT-PFS\ROAMING PROFILES\K.PAVLOV\DOCUMENTS\VISUAL STUDIO 2012\PROJECTS\LAB1_PARPROGR\LAB1_PARPROGR\STDAFX.H
\\LIVT-PFS\ROAMING PROFILES\K.PAVLOV\DOCUMENTS\VISUAL STUDIO 2012\PROJECTS\LAB1_PARPROGR\LAB1_PARPROGR\TARGETVER.H
C:\PROGRAM FILES (X86)\WINDOWS KITS\8.0\INCLUDE\SHARED\SDKDDKVER.H
C:\PF\MICROSOFT VISUAL STUDIO 11.0\VC\INCLUDE\STDIO.H
C:\PF\MICROSOFT VISUAL STUDIO 11.0\VC\INCLUDE\CRTDEFS.H
C:\PF\MICROSOFT VISUAL STUDIO 11.0\VC\INCLUDE\SAL.H
C:\PF\MICROSOFT VISUAL STUDIO 11.0\VC\INCLUDE\CONCURRENCYSAL.H
C:\PF\MICROSOFT VISUAL STUDIO 11.0\VC\INCLUDE\VADEFS.H
C:\PF\MICROSOFT VISUAL STUDIO 11.0\VC\INCLUDE\SWPRINTF.INL
C:\PF\MICROSOFT VISUAL STUDIO 11.0\VC\INCLUDE\TCHAR.H
C:\PF\MICROSOFT VISUAL STUDIO 11.0\VC\INCLUDE\WCHAR.H
C:\PF\MICROSOFT VISUAL STUDIO 11.0\VC\INCLUDE\WTIME.INL
^\\LIVT-PFS\ROAMING PROFILES\K.PAVLOV\DOCUMENTS\VISUAL STUDIO 2012\PROJECTS\LAB1_PARPROGR\LAB1_PARPROGR\LAB1_PARPROGR.CPP
C:\PF\MICROSOFT VISUAL STUDIO 11.0\VC\BIN\1049\CLUI.DLL
C:\WINDOWS\GLOBALIZATION\SORTING\SORTDEFAULT.NLS
C:\WINDOWS\SYSTEM32\RSAENH.DLL
C:\WINDOWS\SYSTEM32\TZRES.DLL
\\LIVT-PFS\ROAMING PROFILES\K.PAVLOV\DOCUMENTS\VISUAL STUDIO 2012\PROJECTS\LAB1_PARPROGR\LAB1_PARPROGR\DEBUG\LAB1_PARPROGR.PCH
C:\PROGRAM FILES (X86)\MPICH\SDK\INCLUDE\MPI.H
C:\PROGRAM FILES (X86)\MPICH\SDK\INCLUDE\MPIDEFS.H
C:\PROGRAM FILES (X86)\MPICH\SDK\INCLUDE\MPIO.H
C:\PROGRAM FILES (X86)\MPICH\SDK\INCLUDE\MPI_ERRNO.H
